[
  {
    "name": "bldstb",
    "key": "5dc2ef42bf030c089a78db5f"
  },
  {
    "name": "buildint",
    "key": "5c7c879c43eb8d1f8efbef4c"
  },
  {
    "name": "demo",
    "key": "5bc5351704cc78402e078018"
  },
  {
    "name": "devint",
    "key": "5c7c87826b75191f359aa471"
  },
  {
    "name": "prod",
    "key": "5bc5351704cc78402e078019"
  },
  {
    "name": "qaint",
    "key": "5c7c888d7106771f25efb7d0"
  },
  {
    "name": "qaint2",
    "key": "5c7c88957a20201f480b2d42"
  },
  {
    "name": "sandbox",
    "key": "5c7c873a536ea51f5939751b"
  },
  {
    "name": "stage",
    "key": "5bc53d26ef6cd8402e0cffc3"
  },
  {
    "name": "hrtest",
    "key": "5dc2eec1bf030c089a78db45"
  },
  {
    "name": "bldhot",
    "key": "5e4d5859703b8008af739ef9"
  }
]